\contentsline {chapter}{\numberline {I}INTRODUCTION}{1}
\contentsline {chapter}{\numberline {II}REVIEW OF LITERATURE}{4}
\contentsline {chapter}{\numberline {III}METHODOLOGY}{5}
\contentsline {section}{\numberline {III.1}\normalfont The Role of Microbiology in WWTP Aeration Treatment}{5}
\contentsline {chapter}{\numberline {IV}FINDINGS}{7}
\contentsline {chapter}{\numberline {V}CONCLUSION}{8}
\contentsline {chapter}{\numberline {VI}REFERENCES}{9}
\contentsline {chapter}{\numberline {VII}APPENDICES}{10}
