\relax 
\citation{mccarty}
\@writefile{toc}{\contentsline {chapter}{\numberline {I}INTRODUCTION}{1}}
\@writefile{lof}{\addvspace {10\p@ }}
\@writefile{lot}{\addvspace {10\p@ }}
\@writefile{toc}{\contentsline {chapter}{\numberline {II}REVIEW OF LITERATURE}{4}}
\@writefile{lof}{\addvspace {10\p@ }}
\@writefile{lot}{\addvspace {10\p@ }}
\@writefile{toc}{\contentsline {chapter}{\numberline {III}METHODOLOGY}{5}}
\@writefile{lof}{\addvspace {10\p@ }}
\@writefile{lot}{\addvspace {10\p@ }}
\@writefile{toc}{\contentsline {section}{\numberline {III.1}\normalfont  The Role of Microbiology in WWTP Aeration Treatment}{5}}
\@writefile{toc}{\contentsline {chapter}{\numberline {IV}FINDINGS}{7}}
\@writefile{lof}{\addvspace {10\p@ }}
\@writefile{lot}{\addvspace {10\p@ }}
\@writefile{toc}{\contentsline {chapter}{\numberline {V}CONCLUSION}{8}}
\@writefile{lof}{\addvspace {10\p@ }}
\@writefile{lot}{\addvspace {10\p@ }}
\@writefile{toc}{\contentsline {chapter}{\numberline {VI}REFERENCES}{9}}
\@writefile{lof}{\addvspace {10\p@ }}
\@writefile{lot}{\addvspace {10\p@ }}
\bibstyle{apalike}
\bibdata{thesisbibfile}
\@writefile{toc}{\contentsline {chapter}{\numberline {VII}APPENDICES}{10}}
\@writefile{lof}{\addvspace {10\p@ }}
\@writefile{lot}{\addvspace {10\p@ }}
\bibcite{mccarty}{McCarty et\nobreakspace  {}al., 2011}
